hw2/first_part/simulation/qsim/mult32.msim.vcd
$comment
	File created using the following command:
		vcd file mult32.msim.vcd -direction
$end
$date
	Tue Dec 27 14:17:41 2022
$end
$version
	ModelSim Version 10.5b
$end
$timescale
	1ps
$end

$scope module mult32_vlg_vec_tst $end
$var reg 1 ! clock $end
$var reg 32 " multiplicand [31:0] $end
$var reg 32 # multiplier [31:0] $end
$var reg 1 $ reset $end
$var wire 1 % product [31] $end
$var wire 1 & product [30] $end
$var wire 1 ' product [29] $end
$var wire 1 ( product [28] $end
$var wire 1 ) product [27] $end
$var wire 1 * product [26] $end
$var wire 1 + product [25] $end
$var wire 1 , product [24] $end
$var wire 1 - product [23] $end
$var wire 1 . product [22] $end
$var wire 1 / product [21] $end
$var wire 1 0 product [20] $end
$var wire 1 1 product [19] $end
$var wire 1 2 product [18] $end
$var wire 1 3 product [17] $end
$var wire 1 4 product [16] $end
$var wire 1 5 product [15] $end
$var wire 1 6 product [14] $end
$var wire 1 7 product [13] $end
$var wire 1 8 product [12] $end
$var wire 1 9 product [11] $end
$var wire 1 : product [10] $end
$var wire 1 ; product [9] $end
$var wire 1 < product [8] $end
$var wire 1 = product [7] $end
$var wire 1 > product [6] $end
$var wire 1 ? product [5] $end
$var wire 1 @ product [4] $end
$var wire 1 A product [3] $end
$var wire 1 B product [2] $end
$var wire 1 C product [1] $end
$var wire 1 D product [0] $end
$var wire 1 E product01 $end
$var wire 1 F shift1 $end
$var wire 1 G state [2] $end
$var wire 1 H state [1] $end
$var wire 1 I state [0] $end
$var wire 1 J write1 $end

$scope module i1 $end
$var wire 1 K gnd $end
$var wire 1 L vcc $end
$var wire 1 M unknown $end
$var tri1 1 N devclrn $end
$var tri1 1 O devpor $end
$var tri1 1 P devoe $end
$var wire 1 Q multiplicand[0]~input_o $end
$var wire 1 R multiplicand[1]~input_o $end
$var wire 1 S multiplicand[2]~input_o $end
$var wire 1 T multiplicand[3]~input_o $end
$var wire 1 U multiplicand[4]~input_o $end
$var wire 1 V multiplicand[5]~input_o $end
$var wire 1 W multiplicand[6]~input_o $end
$var wire 1 X multiplicand[7]~input_o $end
$var wire 1 Y multiplicand[8]~input_o $end
$var wire 1 Z multiplicand[9]~input_o $end
$var wire 1 [ multiplicand[10]~input_o $end
$var wire 1 \ multiplicand[11]~input_o $end
$var wire 1 ] multiplicand[12]~input_o $end
$var wire 1 ^ multiplicand[13]~input_o $end
$var wire 1 _ multiplicand[14]~input_o $end
$var wire 1 ` multiplicand[15]~input_o $end
$var wire 1 a multiplicand[16]~input_o $end
$var wire 1 b multiplicand[17]~input_o $end
$var wire 1 c multiplicand[18]~input_o $end
$var wire 1 d multiplicand[19]~input_o $end
$var wire 1 e multiplicand[20]~input_o $end
$var wire 1 f multiplicand[21]~input_o $end
$var wire 1 g multiplicand[22]~input_o $end
$var wire 1 h multiplicand[23]~input_o $end
$var wire 1 i multiplicand[24]~input_o $end
$var wire 1 j multiplicand[25]~input_o $end
$var wire 1 k multiplicand[26]~input_o $end
$var wire 1 l multiplicand[27]~input_o $end
$var wire 1 m multiplicand[28]~input_o $end
$var wire 1 n multiplicand[29]~input_o $end
$var wire 1 o multiplicand[30]~input_o $end
$var wire 1 p multiplicand[31]~input_o $end
$var wire 1 q multiplier[0]~input_o $end
$var wire 1 r multiplier[1]~input_o $end
$var wire 1 s multiplier[2]~input_o $end
$var wire 1 t multiplier[3]~input_o $end
$var wire 1 u multiplier[4]~input_o $end
$var wire 1 v multiplier[5]~input_o $end
$var wire 1 w multiplier[6]~input_o $end
$var wire 1 x multiplier[7]~input_o $end
$var wire 1 y multiplier[8]~input_o $end
$var wire 1 z multiplier[9]~input_o $end
$var wire 1 { multiplier[10]~input_o $end
$var wire 1 | multiplier[11]~input_o $end
$var wire 1 } multiplier[12]~input_o $end
$var wire 1 ~ multiplier[13]~input_o $end
$var wire 1 !! multiplier[14]~input_o $end
$var wire 1 "! multiplier[15]~input_o $end
$var wire 1 #! multiplier[16]~input_o $end
$var wire 1 $! multiplier[17]~input_o $end
$var wire 1 %! multiplier[18]~input_o $end
$var wire 1 &! multiplier[19]~input_o $end
$var wire 1 '! multiplier[20]~input_o $end
$var wire 1 (! multiplier[21]~input_o $end
$var wire 1 )! multiplier[22]~input_o $end
$var wire 1 *! multiplier[23]~input_o $end
$var wire 1 +! multiplier[24]~input_o $end
$var wire 1 ,! multiplier[25]~input_o $end
$var wire 1 -! multiplier[26]~input_o $end
$var wire 1 .! multiplier[27]~input_o $end
$var wire 1 /! multiplier[28]~input_o $end
$var wire 1 0! multiplier[29]~input_o $end
$var wire 1 1! multiplier[30]~input_o $end
$var wire 1 2! multiplier[31]~input_o $end
$var wire 1 3! ~QUARTUS_CREATED_GND~I_combout $end
$var wire 1 4! clock~input_o $end
$var wire 1 5! clock~inputCLKENA0_outclk $end
$var wire 1 6! reset~input_o $end
$var wire 1 7! control0|currentIteration[0]~1_combout $end
$var wire 1 8! control0|currentState~12_combout $end
$var wire 1 9! control0|currentState.S0~q $end
$var wire 1 :! control0|currentState~10_combout $end
$var wire 1 ;! control0|currentState.S2~q $end
$var wire 1 <! control0|currentState~9_combout $end
$var wire 1 =! control0|currentState.S3~q $end
$var wire 1 >! control0|currentIteration[6]~0_combout $end
$var wire 1 ?! control0|Add0~21_sumout $end
$var wire 1 @! control0|Add0~22 $end
$var wire 1 A! control0|Add0~17_sumout $end
$var wire 1 B! control0|Add0~18 $end
$var wire 1 C! control0|Add0~13_sumout $end
$var wire 1 D! control0|Add0~14 $end
$var wire 1 E! control0|Add0~9_sumout $end
$var wire 1 F! control0|Add0~10 $end
$var wire 1 G! control0|Add0~1_sumout $end
$var wire 1 H! control0|Add0~2 $end
$var wire 1 I! control0|Add0~5_sumout $end
$var wire 1 J! control0|currentState~11_combout $end
$var wire 1 K! control0|currentState.S4~q $end
$var wire 1 L! control0|shift~0_combout $end
$var wire 1 M! control0|shift~q $end
$var wire 1 N! control0|currentIteration [6] $end
$var wire 1 O! control0|currentIteration [5] $end
$var wire 1 P! control0|currentIteration [4] $end
$var wire 1 Q! control0|currentIteration [3] $end
$var wire 1 R! control0|currentIteration [2] $end
$var wire 1 S! control0|currentIteration [1] $end
$var wire 1 T! control0|currentIteration [0] $end
$var wire 1 U! control0|state [2] $end
$var wire 1 V! control0|state [1] $end
$var wire 1 W! control0|state [0] $end
$upscope $end
$upscope $end
$enddefinitions $end
#0
$dumpvars
0!
b11 "
b101 #
0$
0D
0C
0B
0A
0@
0?
0>
0=
0<
0;
0:
09
08
07
06
05
04
03
02
01
00
0/
0.
0-
0,
0+
0*
0)
0(
0'
0&
0%
0E
0F
0I
0H
0G
0J
0K
1L
xM
1N
1O
1P
1Q
1R
0S
0T
0U
0V
0W
0X
0Y
0Z
0[
0\
0]
0^
0_
0`
0a
0b
0c
0d
0e
0f
0g
0h
0i
0j
0k
0l
0m
0n
0o
0p
1q
0r
1s
0t
0u
0v
0w
0x
0y
0z
0{
0|
0}
0~
0!!
0"!
0#!
0$!
0%!
0&!
0'!
0(!
0)!
0*!
0+!
0,!
0-!
0.!
0/!
00!
01!
02!
03!
04!
05!
06!
17!
18!
09!
1:!
0;!
0<!
0=!
0>!
0?!
0@!
0A!
0B!
0C!
0D!
0E!
0F!
0G!
0H!
0I!
0J!
0K!
0L!
0M!
0T!
0S!
0R!
0Q!
0P!
0O!
0N!
zW!
0V!
zU!
$end
#5000
1!
14!
15!
1;!
19!
0:!
1V!
1L!
1<!
1H
#10000
0!
04!
05!
#15000
1!
14!
15!
0;!
1M!
1=!
1I
1F
1>!
0L!
0<!
08!
#20000
0!
04!
05!
#25000
1!
14!
15!
1T!
09!
0M!
0=!
0I
0F
0>!
1:!
1?!
07!
0V!
18!
0H
#30000
0!
04!
05!
#35000
1!
14!
15!
1;!
19!
0:!
1V!
1L!
1<!
1H
#40000
0!
04!
05!
#45000
1!
14!
15!
0;!
1M!
1=!
1I
1F
1>!
0L!
0<!
08!
#50000
0!
04!
05!
#55000
1!
14!
15!
1S!
0T!
09!
0M!
0=!
0I
0F
0>!
1:!
17!
0V!
18!
0H
#60000
0!
04!
05!
#65000
1!
14!
15!
1;!
19!
0:!
1V!
1L!
1<!
1H
#70000
0!
04!
05!
#75000
1!
14!
15!
0;!
1M!
1=!
1I
1F
1>!
0L!
0<!
08!
#80000
0!
04!
05!
#85000
1!
14!
15!
1T!
09!
0M!
0=!
0I
0F
1@!
0>!
1:!
0?!
07!
0V!
18!
0H
1A!
#90000
0!
04!
05!
#95000
1!
14!
15!
1;!
19!
0:!
1V!
1L!
1<!
1H
#100000
0!
04!
05!
#105000
1!
14!
15!
0;!
1M!
1=!
1I
1F
1>!
0L!
0<!
08!
#110000
0!
04!
05!
#115000
1!
14!
15!
1R!
0S!
0T!
09!
0M!
0=!
0I
0F
0@!
1B!
0>!
1:!
17!
0A!
0V!
18!
0H
0B!
1A!
1C!
0C!
#120000
0!
04!
05!
#125000
1!
14!
15!
1;!
19!
0:!
1V!
1L!
1<!
1H
#130000
0!
04!
05!
#135000
1!
14!
15!
0;!
1M!
1=!
1I
1F
1>!
0L!
0<!
08!
#140000
0!
04!
05!
#145000
1!
14!
15!
1T!
09!
0M!
0=!
0I
0F
0>!
1:!
1?!
07!
0V!
18!
0H
#150000
0!
04!
05!
#155000
1!
14!
15!
1;!
19!
0:!
1V!
1L!
1<!
1H
#160000
0!
04!
05!
#165000
1!
14!
15!
0;!
1M!
1=!
1I
1F
1>!
0L!
0<!
08!
#170000
0!
04!
05!
#175000
1!
14!
15!
1S!
0T!
09!
0M!
0=!
0I
0F
0>!
1:!
17!
0V!
18!
0H
#180000
0!
04!
05!
#185000
1!
14!
15!
1;!
19!
0:!
1V!
1L!
1<!
1H
#190000
0!
04!
05!
#195000
1!
14!
15!
0;!
1M!
1=!
1I
1F
1>!
0L!
0<!
08!
#200000
0!
04!
05!
#205000
1!
14!
15!
1T!
09!
0M!
0=!
0I
0F
1@!
0>!
1:!
0?!
07!
0V!
18!
0H
1B!
0A!
1C!
#210000
0!
04!
05!
#215000
1!
14!
15!
1;!
19!
0:!
1V!
1L!
1<!
1H
#220000
0!
04!
05!
#225000
1!
14!
15!
0;!
1M!
1=!
1I
1F
1>!
0L!
0<!
08!
#230000
0!
04!
05!
#235000
1!
14!
15!
1Q!
0R!
0S!
0T!
09!
0M!
0=!
0I
0F
0@!
0B!
1D!
0>!
1:!
17!
1A!
0C!
0V!
18!
0H
0D!
0A!
1C!
1E!
0E!
#240000
0!
04!
05!
#245000
1!
14!
15!
1;!
19!
0:!
1V!
1L!
1<!
1H
#250000
0!
04!
05!
#255000
1!
14!
15!
0;!
1M!
1=!
1I
1F
1>!
0L!
0<!
08!
#260000
0!
04!
05!
#265000
1!
14!
15!
1T!
09!
0M!
0=!
0I
0F
0>!
1:!
1?!
07!
0V!
18!
0H
#270000
0!
04!
05!
#275000
1!
14!
15!
1;!
19!
0:!
1V!
1L!
1<!
1H
#280000
0!
04!
05!
#285000
1!
14!
15!
0;!
1M!
1=!
1I
1F
1>!
0L!
0<!
08!
#290000
0!
04!
05!
#295000
1!
14!
15!
1S!
0T!
09!
0M!
0=!
0I
0F
0>!
1:!
17!
0V!
18!
0H
#300000
0!
04!
05!
#305000
1!
14!
15!
1;!
19!
0:!
1V!
1L!
1<!
1H
#310000
0!
04!
05!
#315000
1!
14!
15!
0;!
1M!
1=!
1I
1F
1>!
0L!
0<!
08!
#320000
0!
04!
05!
#325000
1!
14!
15!
1T!
09!
0M!
0=!
0I
0F
1@!
0>!
1:!
0?!
07!
0V!
18!
0H
1A!
#330000
0!
04!
05!
#335000
1!
14!
15!
1;!
19!
0:!
1V!
1L!
1<!
1H
#340000
0!
04!
05!
#345000
1!
14!
15!
0;!
1M!
1=!
1I
1F
1>!
0L!
0<!
08!
#350000
0!
04!
05!
#355000
1!
14!
15!
1R!
0S!
0T!
09!
0M!
0=!
0I
0F
0@!
1B!
0>!
1:!
17!
0A!
0V!
18!
0H
0B!
1D!
1A!
0C!
0D!
1C!
1E!
0E!
#360000
0!
04!
05!
#365000
1!
14!
15!
1;!
19!
0:!
1V!
1L!
1<!
1H
#370000
0!
04!
05!
#375000
1!
14!
15!
0;!
1M!
1=!
1I
1F
1>!
0L!
0<!
08!
#380000
0!
04!
05!
#385000
1!
14!
15!
1T!
09!
0M!
0=!
0I
0F
0>!
1:!
1?!
07!
0V!
18!
0H
#390000
0!
04!
05!
#395000
1!
14!
15!
1;!
19!
0:!
1V!
1L!
1<!
1H
#400000
0!
04!
05!
#405000
1!
14!
15!
0;!
1M!
1=!
1I
1F
1>!
0L!
0<!
08!
#410000
0!
04!
05!
#415000
1!
14!
15!
1S!
0T!
09!
0M!
0=!
0I
0F
0>!
1:!
17!
0V!
18!
0H
#420000
0!
04!
05!
#425000
1!
14!
15!
1;!
19!
0:!
1V!
1L!
1<!
1H
#430000
0!
04!
05!
#435000
1!
14!
15!
0;!
1M!
1=!
1I
1F
1>!
0L!
0<!
08!
#440000
0!
04!
05!
#445000
1!
14!
15!
1T!
09!
0M!
0=!
0I
0F
1@!
0>!
1:!
0?!
07!
0V!
18!
0H
1B!
0A!
1D!
0C!
1E!
#450000
0!
04!
05!
#455000
1!
14!
15!
1;!
19!
0:!
1V!
1L!
1<!
1H
#460000
0!
04!
05!
#465000
1!
14!
15!
0;!
1M!
1=!
1I
1F
1>!
0L!
0<!
08!
#470000
0!
04!
05!
#475000
1!
14!
15!
1P!
0Q!
0R!
0S!
0T!
09!
0M!
0=!
0I
0F
0@!
0B!
0D!
1F!
0>!
1:!
17!
1A!
1C!
0E!
0V!
18!
0H
0F!
0A!
0C!
1E!
1G!
0G!
#480000
0!
04!
05!
#485000
1!
14!
15!
1;!
19!
0:!
1V!
1L!
1<!
1H
#490000
0!
04!
05!
#495000
1!
14!
15!
0;!
1M!
1=!
1I
1F
1>!
0L!
0<!
08!
#500000
0!
04!
05!
#505000
1!
14!
15!
1T!
09!
0M!
0=!
0I
0F
0>!
1:!
1?!
07!
0V!
18!
0H
#510000
0!
04!
05!
#515000
1!
14!
15!
1;!
19!
0:!
1V!
1L!
1<!
1H
#520000
0!
04!
05!
#525000
1!
14!
15!
0;!
1M!
1=!
1I
1F
1>!
0L!
0<!
08!
#530000
0!
04!
05!
#535000
1!
14!
15!
1S!
0T!
09!
0M!
0=!
0I
0F
0>!
1:!
17!
0V!
18!
0H
#540000
0!
04!
05!
#545000
1!
14!
15!
1;!
19!
0:!
1V!
1L!
1<!
1H
#550000
0!
04!
05!
#555000
1!
14!
15!
0;!
1M!
1=!
1I
1F
1>!
0L!
0<!
08!
#560000
0!
04!
05!
#565000
1!
14!
15!
1T!
09!
0M!
0=!
0I
0F
1@!
0>!
1:!
0?!
07!
0V!
18!
0H
1A!
#570000
0!
04!
05!
#575000
1!
14!
15!
1;!
19!
0:!
1V!
1L!
1<!
1H
#580000
0!
04!
05!
#585000
1!
14!
15!
0;!
1M!
1=!
1I
1F
1>!
0L!
0<!
08!
#590000
0!
04!
05!
#595000
1!
14!
15!
1R!
0S!
0T!
09!
0M!
0=!
0I
0F
0@!
1B!
0>!
1:!
17!
0A!
0V!
18!
0H
0B!
1A!
1C!
0C!
#600000
0!
04!
05!
#605000
1!
14!
15!
1;!
19!
0:!
1V!
1L!
1<!
1H
#610000
0!
04!
05!
#615000
1!
14!
15!
0;!
1M!
1=!
1I
1F
1>!
0L!
0<!
08!
#620000
0!
04!
05!
#625000
1!
14!
15!
1T!
09!
0M!
0=!
0I
0F
0>!
1:!
1?!
07!
0V!
18!
0H
#630000
0!
04!
05!
#635000
1!
14!
15!
1;!
19!
0:!
1V!
1L!
1<!
1H
#640000
0!
04!
05!
#645000
1!
14!
15!
0;!
1M!
1=!
1I
1F
1>!
0L!
0<!
08!
#650000
0!
04!
05!
#655000
1!
14!
15!
1S!
0T!
09!
0M!
0=!
0I
0F
0>!
1:!
17!
0V!
18!
0H
#660000
0!
04!
05!
#665000
1!
14!
15!
1;!
19!
0:!
1V!
1L!
1<!
1H
#670000
0!
04!
05!
#675000
1!
14!
15!
0;!
1M!
1=!
1I
1F
1>!
0L!
0<!
08!
#680000
0!
04!
05!
#685000
1!
14!
15!
1T!
09!
0M!
0=!
0I
0F
1@!
0>!
1:!
0?!
07!
0V!
18!
0H
1B!
0A!
1C!
#690000
0!
04!
05!
#695000
1!
14!
15!
1;!
19!
0:!
1V!
1L!
1<!
1H
#700000
0!
04!
05!
#705000
1!
14!
15!
0;!
1M!
1=!
1I
1F
1>!
0L!
0<!
08!
#710000
0!
04!
05!
#715000
1!
14!
15!
1Q!
0R!
0S!
0T!
09!
0M!
0=!
0I
0F
0@!
0B!
1D!
0>!
1:!
17!
1A!
0C!
0V!
18!
0H
0D!
1F!
0A!
1C!
0E!
0F!
1E!
1G!
0G!
#720000
0!
04!
05!
#725000
1!
14!
15!
1;!
19!
0:!
1V!
1L!
1<!
1H
#730000
0!
04!
05!
#735000
1!
14!
15!
0;!
1M!
1=!
1I
1F
1>!
0L!
0<!
08!
#740000
0!
04!
05!
#745000
1!
14!
15!
1T!
09!
0M!
0=!
0I
0F
0>!
1:!
1?!
07!
0V!
18!
0H
#750000
0!
04!
05!
#755000
1!
14!
15!
1;!
19!
0:!
1V!
1L!
1<!
1H
#760000
0!
04!
05!
#765000
1!
14!
15!
0;!
1M!
1=!
1I
1F
1>!
0L!
0<!
08!
#770000
0!
04!
05!
#775000
1!
14!
15!
1S!
0T!
09!
0M!
0=!
0I
0F
0>!
1:!
17!
0V!
18!
0H
#780000
0!
04!
05!
#785000
1!
14!
15!
1;!
19!
0:!
1V!
1L!
1<!
1H
#790000
0!
04!
05!
#795000
1!
14!
15!
0;!
1M!
1=!
1I
1F
1>!
0L!
0<!
08!
#800000
0!
04!
05!
#805000
1!
14!
15!
1T!
09!
0M!
0=!
0I
0F
1@!
0>!
1:!
0?!
07!
0V!
18!
0H
1A!
#810000
0!
04!
05!
#815000
1!
14!
15!
1;!
19!
0:!
1V!
1L!
1<!
1H
#820000
0!
04!
05!
#825000
1!
14!
15!
0;!
1M!
1=!
1I
1F
1>!
0L!
0<!
08!
#830000
0!
04!
05!
#835000
1!
14!
15!
1R!
0S!
0T!
09!
0M!
0=!
0I
0F
0@!
1B!
0>!
1:!
17!
0A!
0V!
18!
0H
0B!
1D!
1A!
0C!
0D!
1F!
1C!
0E!
0F!
1E!
1G!
0G!
#840000
0!
04!
05!
#845000
1!
14!
15!
1;!
19!
0:!
1V!
1L!
1<!
1H
#850000
0!
04!
05!
#855000
1!
14!
15!
0;!
1M!
1=!
1I
1F
1>!
0L!
0<!
08!
#860000
0!
04!
05!
#865000
1!
14!
15!
1T!
09!
0M!
0=!
0I
0F
0>!
1:!
1?!
07!
0V!
18!
0H
#870000
0!
04!
05!
#875000
1!
14!
15!
1;!
19!
0:!
1V!
1L!
1<!
1H
#880000
0!
04!
05!
#885000
1!
14!
15!
0;!
1M!
1=!
1I
1F
1>!
0L!
0<!
08!
#890000
0!
04!
05!
#895000
1!
14!
15!
1S!
0T!
09!
0M!
0=!
0I
0F
0>!
1:!
17!
0V!
18!
0H
#900000
0!
04!
05!
#905000
1!
14!
15!
1;!
19!
0:!
1V!
1L!
1<!
1H
#910000
0!
04!
05!
#915000
1!
14!
15!
0;!
1M!
1=!
1I
1F
1>!
0L!
0<!
08!
#920000
0!
04!
05!
#925000
1!
14!
15!
1T!
09!
0M!
0=!
0I
0F
1@!
0>!
1:!
0?!
07!
0V!
18!
0H
1B!
0A!
1D!
0C!
1F!
0E!
1G!
#930000
0!
04!
05!
#935000
1!
14!
15!
1;!
19!
0:!
1V!
1L!
1<!
1H
#940000
0!
04!
05!
#945000
1!
14!
15!
0;!
1M!
1=!
1I
1F
1>!
0L!
0<!
08!
#950000
0!
04!
05!
#955000
1!
14!
15!
1O!
0P!
0Q!
0R!
0S!
0T!
09!
0M!
0=!
0I
0F
0@!
0B!
0D!
0F!
1H!
0>!
1:!
17!
1A!
1C!
1E!
0G!
18!
0V!
0H
0H!
0A!
0C!
0E!
1G!
1I!
0I!
#960000
0!
04!
05!
#965000
1!
14!
15!
1;!
19!
0:!
1V!
1L!
1<!
1H
#970000
0!
04!
05!
#975000
1!
14!
15!
0;!
1M!
1=!
1I
1F
1>!
0L!
0<!
1J!
#980000
0!
04!
05!
#985000
1!
14!
15!
1T!
0M!
1K!
0=!
0I
1G
0F
0>!
1?!
07!
0V!
0H
#990000
0!
04!
05!
#995000
1!
14!
15!
