project/correct previous hw/alu/simulation/qsim/alu32.msim.vcd
$comment
	File created using the following command:
		vcd file alu32.msim.vcd -direction
$end
$date
	Fri Dec 30 18:27:37 2022
$end
$version
	ModelSim Version 10.5b
$end
$timescale
	1ps
$end

$scope module alu32_vlg_vec_tst $end
$var reg 32 ! a [31:0] $end
$var reg 3 " aluop [2:0] $end
$var reg 32 # b [31:0] $end
$var reg 1 $ clock $end
$var reg 1 % reset $end
$var wire 1 & result [31] $end
$var wire 1 ' result [30] $end
$var wire 1 ( result [29] $end
$var wire 1 ) result [28] $end
$var wire 1 * result [27] $end
$var wire 1 + result [26] $end
$var wire 1 , result [25] $end
$var wire 1 - result [24] $end
$var wire 1 . result [23] $end
$var wire 1 / result [22] $end
$var wire 1 0 result [21] $end
$var wire 1 1 result [20] $end
$var wire 1 2 result [19] $end
$var wire 1 3 result [18] $end
$var wire 1 4 result [17] $end
$var wire 1 5 result [16] $end
$var wire 1 6 result [15] $end
$var wire 1 7 result [14] $end
$var wire 1 8 result [13] $end
$var wire 1 9 result [12] $end
$var wire 1 : result [11] $end
$var wire 1 ; result [10] $end
$var wire 1 < result [9] $end
$var wire 1 = result [8] $end
$var wire 1 > result [7] $end
$var wire 1 ? result [6] $end
$var wire 1 @ result [5] $end
$var wire 1 A result [4] $end
$var wire 1 B result [3] $end
$var wire 1 C result [2] $end
$var wire 1 D result [1] $end
$var wire 1 E result [0] $end

$scope module i1 $end
$var wire 1 F gnd $end
$var wire 1 G vcc $end
$var wire 1 H unknown $end
$var tri1 1 I devclrn $end
$var tri1 1 J devpor $end
$var tri1 1 K devoe $end
$var wire 1 L ~QUARTUS_CREATED_GND~I_combout $end
$var wire 1 M aluop[2]~input_o $end
$var wire 1 N clock~input_o $end
$var wire 1 O clock~inputCLKENA0_outclk $end
$var wire 1 P b[0]~input_o $end
$var wire 1 Q mult0|dp0|reg_product[0]~feeder_combout $end
$var wire 1 R b[1]~input_o $end
$var wire 1 S mult0|dp0|reg_product[1]~feeder_combout $end
$var wire 1 T b[2]~input_o $end
$var wire 1 U mult0|dp0|reg_product[2]~feeder_combout $end
$var wire 1 V b[3]~input_o $end
$var wire 1 W mult0|dp0|reg_product[3]~feeder_combout $end
$var wire 1 X b[4]~input_o $end
$var wire 1 Y mult0|dp0|reg_product[4]~feeder_combout $end
$var wire 1 Z b[5]~input_o $end
$var wire 1 [ mult0|dp0|reg_product[5]~feeder_combout $end
$var wire 1 \ b[6]~input_o $end
$var wire 1 ] mult0|dp0|reg_product[6]~feeder_combout $end
$var wire 1 ^ b[7]~input_o $end
$var wire 1 _ mult0|dp0|reg_product[7]~feeder_combout $end
$var wire 1 ` b[8]~input_o $end
$var wire 1 a mult0|dp0|reg_product[8]~feeder_combout $end
$var wire 1 b b[9]~input_o $end
$var wire 1 c mult0|dp0|reg_product[9]~feeder_combout $end
$var wire 1 d b[10]~input_o $end
$var wire 1 e mult0|dp0|reg_product[10]~feeder_combout $end
$var wire 1 f b[11]~input_o $end
$var wire 1 g mult0|dp0|reg_product[11]~feeder_combout $end
$var wire 1 h b[12]~input_o $end
$var wire 1 i mult0|dp0|reg_product[12]~feeder_combout $end
$var wire 1 j b[13]~input_o $end
$var wire 1 k mult0|dp0|reg_product[13]~feeder_combout $end
$var wire 1 l b[14]~input_o $end
$var wire 1 m mult0|dp0|reg_product[14]~feeder_combout $end
$var wire 1 n b[15]~input_o $end
$var wire 1 o mult0|dp0|reg_product[15]~feeder_combout $end
$var wire 1 p b[16]~input_o $end
$var wire 1 q mult0|dp0|reg_product[16]~feeder_combout $end
$var wire 1 r b[17]~input_o $end
$var wire 1 s mult0|dp0|reg_product[17]~feeder_combout $end
$var wire 1 t b[18]~input_o $end
$var wire 1 u mult0|dp0|reg_product[18]~feeder_combout $end
$var wire 1 v b[19]~input_o $end
$var wire 1 w mult0|dp0|reg_product[19]~feeder_combout $end
$var wire 1 x b[20]~input_o $end
$var wire 1 y mult0|dp0|reg_product[20]~feeder_combout $end
$var wire 1 z b[21]~input_o $end
$var wire 1 { mult0|dp0|reg_product[21]~feeder_combout $end
$var wire 1 | b[22]~input_o $end
$var wire 1 } mult0|dp0|reg_product[22]~feeder_combout $end
$var wire 1 ~ b[23]~input_o $end
$var wire 1 !! mult0|dp0|reg_product[23]~feeder_combout $end
$var wire 1 "! b[24]~input_o $end
$var wire 1 #! mult0|dp0|reg_product[24]~feeder_combout $end
$var wire 1 $! b[25]~input_o $end
$var wire 1 %! mult0|dp0|reg_product[25]~feeder_combout $end
$var wire 1 &! b[26]~input_o $end
$var wire 1 '! mult0|dp0|reg_product[26]~feeder_combout $end
$var wire 1 (! b[27]~input_o $end
$var wire 1 )! mult0|dp0|reg_product[27]~feeder_combout $end
$var wire 1 *! b[28]~input_o $end
$var wire 1 +! mult0|dp0|reg_product[28]~feeder_combout $end
$var wire 1 ,! b[29]~input_o $end
$var wire 1 -! mult0|dp0|reg_product[29]~feeder_combout $end
$var wire 1 .! b[30]~input_o $end
$var wire 1 /! mult0|dp0|reg_product[30]~feeder_combout $end
$var wire 1 0! b[31]~input_o $end
$var wire 1 1! mult0|dp0|reg_product[31]~feeder_combout $end
$var wire 1 2! a[0]~input_o $end
$var wire 1 3! mult0|dp0|Add1~1_sumout $end
$var wire 1 4! a[1]~input_o $end
$var wire 1 5! mult0|dp0|Add1~2 $end
$var wire 1 6! mult0|dp0|Add1~5_sumout $end
$var wire 1 7! a[2]~input_o $end
$var wire 1 8! mult0|dp0|Add1~6 $end
$var wire 1 9! mult0|dp0|Add1~9_sumout $end
$var wire 1 :! a[3]~input_o $end
$var wire 1 ;! mult0|dp0|Add1~10 $end
$var wire 1 <! mult0|dp0|Add1~13_sumout $end
$var wire 1 =! a[4]~input_o $end
$var wire 1 >! mult0|dp0|Add1~14 $end
$var wire 1 ?! mult0|dp0|Add1~17_sumout $end
$var wire 1 @! a[5]~input_o $end
$var wire 1 A! mult0|dp0|Add1~18 $end
$var wire 1 B! mult0|dp0|Add1~21_sumout $end
$var wire 1 C! a[6]~input_o $end
$var wire 1 D! mult0|dp0|Add1~22 $end
$var wire 1 E! mult0|dp0|Add1~25_sumout $end
$var wire 1 F! a[7]~input_o $end
$var wire 1 G! mult0|dp0|Add1~26 $end
$var wire 1 H! mult0|dp0|Add1~29_sumout $end
$var wire 1 I! a[8]~input_o $end
$var wire 1 J! mult0|dp0|Add1~30 $end
$var wire 1 K! mult0|dp0|Add1~33_sumout $end
$var wire 1 L! a[9]~input_o $end
$var wire 1 M! mult0|dp0|Add1~34 $end
$var wire 1 N! mult0|dp0|Add1~37_sumout $end
$var wire 1 O! a[10]~input_o $end
$var wire 1 P! mult0|dp0|Add1~38 $end
$var wire 1 Q! mult0|dp0|Add1~41_sumout $end
$var wire 1 R! a[11]~input_o $end
$var wire 1 S! mult0|dp0|Add1~42 $end
$var wire 1 T! mult0|dp0|Add1~45_sumout $end
$var wire 1 U! a[12]~input_o $end
$var wire 1 V! mult0|dp0|Add1~46 $end
$var wire 1 W! mult0|dp0|Add1~49_sumout $end
$var wire 1 X! a[13]~input_o $end
$var wire 1 Y! mult0|dp0|Add1~50 $end
$var wire 1 Z! mult0|dp0|Add1~53_sumout $end
$var wire 1 [! a[14]~input_o $end
$var wire 1 \! mult0|dp0|Add1~54 $end
$var wire 1 ]! mult0|dp0|Add1~57_sumout $end
$var wire 1 ^! a[15]~input_o $end
$var wire 1 _! mult0|dp0|Add1~58 $end
$var wire 1 `! mult0|dp0|Add1~61_sumout $end
$var wire 1 a! a[16]~input_o $end
$var wire 1 b! mult0|dp0|Add1~62 $end
$var wire 1 c! mult0|dp0|Add1~65_sumout $end
$var wire 1 d! a[17]~input_o $end
$var wire 1 e! mult0|dp0|Add1~66 $end
$var wire 1 f! mult0|dp0|Add1~69_sumout $end
$var wire 1 g! a[18]~input_o $end
$var wire 1 h! mult0|dp0|Add1~70 $end
$var wire 1 i! mult0|dp0|Add1~73_sumout $end
$var wire 1 j! a[19]~input_o $end
$var wire 1 k! mult0|dp0|Add1~74 $end
$var wire 1 l! mult0|dp0|Add1~77_sumout $end
$var wire 1 m! a[20]~input_o $end
$var wire 1 n! mult0|dp0|Add1~78 $end
$var wire 1 o! mult0|dp0|Add1~81_sumout $end
$var wire 1 p! a[21]~input_o $end
$var wire 1 q! mult0|dp0|Add1~82 $end
$var wire 1 r! mult0|dp0|Add1~85_sumout $end
$var wire 1 s! a[22]~input_o $end
$var wire 1 t! mult0|dp0|Add1~86 $end
$var wire 1 u! mult0|dp0|Add1~89_sumout $end
$var wire 1 v! a[23]~input_o $end
$var wire 1 w! mult0|dp0|Add1~90 $end
$var wire 1 x! mult0|dp0|Add1~93_sumout $end
$var wire 1 y! a[24]~input_o $end
$var wire 1 z! mult0|dp0|Add1~94 $end
$var wire 1 {! mult0|dp0|Add1~97_sumout $end
$var wire 1 |! a[25]~input_o $end
$var wire 1 }! mult0|dp0|Add1~98 $end
$var wire 1 ~! mult0|dp0|Add1~101_sumout $end
$var wire 1 !" a[26]~input_o $end
$var wire 1 "" mult0|dp0|Add1~102 $end
$var wire 1 #" mult0|dp0|Add1~105_sumout $end
$var wire 1 $" a[27]~input_o $end
$var wire 1 %" mult0|dp0|Add1~106 $end
$var wire 1 &" mult0|dp0|Add1~109_sumout $end
$var wire 1 '" a[28]~input_o $end
$var wire 1 (" mult0|dp0|Add1~110 $end
$var wire 1 )" mult0|dp0|Add1~113_sumout $end
$var wire 1 *" a[29]~input_o $end
$var wire 1 +" mult0|dp0|Add1~114 $end
$var wire 1 ," mult0|dp0|Add1~117_sumout $end
$var wire 1 -" a[30]~input_o $end
$var wire 1 ." mult0|dp0|Add1~118 $end
$var wire 1 /" mult0|dp0|Add1~121_sumout $end
$var wire 1 0" reset~input_o $end
$var wire 1 1" mult0|c0|current_state~9_combout $end
$var wire 1 2" mult0|c0|current_state.SHIFT~q $end
$var wire 1 3" mult0|dp0|counter_in[0]~4_combout $end
$var wire 1 4" mult0|c0|current_state.START~0_combout $end
$var wire 1 5" mult0|c0|current_state.START~q $end
$var wire 1 6" mult0|c0|write_counter~combout $end
$var wire 1 7" mult0|dp0|counter[0]~DUPLICATE_q $end
$var wire 1 8" mult0|dp0|counter_in[1]~5_combout $end
$var wire 1 9" mult0|dp0|counter_in[2]~3_combout $end
$var wire 1 :" mult0|dp0|counter[2]~DUPLICATE_q $end
$var wire 1 ;" mult0|dp0|counter_in[3]~2_combout $end
$var wire 1 <" mult0|dp0|counter_in[4]~1_combout $end
$var wire 1 =" mult0|dp0|counter[3]~DUPLICATE_q $end
$var wire 1 >" mult0|dp0|Add0~0_combout $end
$var wire 1 ?" mult0|dp0|counter_in[5]~0_combout $end
$var wire 1 @" mult0|c0|current_state~8_combout $end
$var wire 1 A" mult0|c0|current_state.CHECK~q $end
$var wire 1 B" mult0|c0|current_state~10_combout $end
$var wire 1 C" mult0|c0|current_state.ADD~q $end
$var wire 1 D" a[31]~input_o $end
$var wire 1 E" mult0|dp0|Add1~122 $end
$var wire 1 F" mult0|dp0|Add1~125_sumout $end
$var wire 1 G" mult0|dp0|mux_add[63]~0_combout $end
$var wire 1 H" mult0|dp0|reg_product[32]~1_combout $end
$var wire 1 I" mult0|dp0|reg_product[0]~0_combout $end
$var wire 1 J" aluop[1]~input_o $end
$var wire 1 K" aluop[0]~input_o $end
$var wire 1 L" mux_0|or0~0_combout $end
$var wire 1 M" mux_1|or0~0_combout $end
$var wire 1 N" mux_1|or0~1_combout $end
$var wire 1 O" add0|fa2|or1~combout $end
$var wire 1 P" mux_2|or0~0_combout $end
$var wire 1 Q" mux_2|or0~1_combout $end
$var wire 1 R" mux_2|or0~2_combout $end
$var wire 1 S" mux_3|or0~3_combout $end
$var wire 1 T" add0|fa3|or1~combout $end
$var wire 1 U" mux_3|or0~2_combout $end
$var wire 1 V" mux_3|or0~0_combout $end
$var wire 1 W" sub0|add_10|fa3|and1~combout $end
$var wire 1 X" sub0|add_1|fa3|or1~combout $end
$var wire 1 Y" mux_3|or0~1_combout $end
$var wire 1 Z" mux_3|or0~4_combout $end
$var wire 1 [" add0|fa4|or1~combout $end
$var wire 1 \" mux_4|or0~0_combout $end
$var wire 1 ]" mux_4|or0~1_combout $end
$var wire 1 ^" mux_4|or0~2_combout $end
$var wire 1 _" sub0|add_1|fa5|or1~combout $end
$var wire 1 `" sub0|add_10|fa5|and1~combout $end
$var wire 1 a" sub0|add_10|fa6|xor2~combout $end
$var wire 1 b" mux_5|or0~0_combout $end
$var wire 1 c" add0|fa5|or1~combout $end
$var wire 1 d" add0|fa6|xor1~combout $end
$var wire 1 e" mux_5|or0~1_combout $end
$var wire 1 f" mux_5|or0~2_combout $end
$var wire 1 g" sub0|add_10|fa7|xor2~combout $end
$var wire 1 h" add0|fa6|and1~combout $end
$var wire 1 i" add0|fa6|and2~0_combout $end
$var wire 1 j" add0|fa6|or1~combout $end
$var wire 1 k" sub0|add_1|fa6|or1~combout $end
$var wire 1 l" mux_6|or0~0_combout $end
$var wire 1 m" mux_6|or0~1_combout $end
$var wire 1 n" sub0|add_1|fa7|or1~combout $end
$var wire 1 o" add0|fa7|or1~combout $end
$var wire 1 p" sub0|add_10|fa7|and1~combout $end
$var wire 1 q" mux_7|or0~0_combout $end
$var wire 1 r" mux_7|or0~1_combout $end
$var wire 1 s" sub0|add_10|fa8|and1~combout $end
$var wire 1 t" sub0|add_10|fa9|xor2~combout $end
$var wire 1 u" sub0|add_1|fa8|and2~combout $end
$var wire 1 v" sub0|add_1|fa8|xor1~combout $end
$var wire 1 w" sub0|add_1|fa8|and1~combout $end
$var wire 1 x" sub0|add_1|fa8|or1~combout $end
$var wire 1 y" mux_8|or0~1_combout $end
$var wire 1 z" add0|fa8|or1~combout $end
$var wire 1 {" mux_8|or0~2_combout $end
$var wire 1 |" mux_8|or0~3_combout $end
$var wire 1 }" mux_8|or0~0_combout $end
$var wire 1 ~" mux_8|or0~4_combout $end
$var wire 1 !# add0|fa9|or1~combout $end
$var wire 1 "# sub0|add_1|fa9|or1~combout $end
$var wire 1 ## sub0|add_10|fa9|and1~combout $end
$var wire 1 $# mux_9|or0~0_combout $end
$var wire 1 %# mux_9|or0~1_combout $end
$var wire 1 &# add0|fa10|or1~combout $end
$var wire 1 '# add0|fa20|xor1~combout $end
$var wire 1 (# sub0|add_10|fa20|xor2~combout $end
$var wire 1 )# sub0|add_10|fa10|xor2~combout $end
$var wire 1 *# sub0|add_1|fa10|or1~combout $end
$var wire 1 +# mux_10|or0~0_combout $end
$var wire 1 ,# mux_10|or0~1_combout $end
$var wire 1 -# mux_10|or0~2_combout $end
$var wire 1 .# sub0|add_1|fa20|or1~combout $end
$var wire 1 /# sub0|add_10|fa20|and1~combout $end
$var wire 1 0# add0|fa20|and2~0_combout $end
$var wire 1 1# add0|fa20|and1~combout $end
$var wire 1 2# add0|fa20|or1~combout $end
$var wire 1 3# mux_11|or0~0_combout $end
$var wire 1 4# mux_11|or0~1_combout $end
$var wire 1 5# sub0|add_1|fa40|xor1~combout $end
$var wire 1 6# add0|fa30|or1~combout $end
$var wire 1 7# sub0|add_10|fa30|xor2~combout $end
$var wire 1 8# sub0|add_1|fa30|or1~combout $end
$var wire 1 9# mux_12|or0~0_combout $end
$var wire 1 :# mux_12|or0~1_combout $end
$var wire 1 ;# add0|fa40|or1~combout $end
$var wire 1 <# mux_13|or0~2_combout $end
$var wire 1 =# sub0|add_1|fa40|and1~combout $end
$var wire 1 ># sub0|add_10|fa50|xor2~combout $end
$var wire 1 ?# sub0|add_1|fa40|and2~combout $end
$var wire 1 @# mux_13|or0~1_combout $end
$var wire 1 A# mux_13|or0~0_combout $end
$var wire 1 B# mux_13|or0~3_combout $end
$var wire 1 C# mux_13|or0~4_combout $end
$var wire 1 D# add0|fa50|or1~combout $end
$var wire 1 E# sub0|add_10|fa50|and1~combout $end
$var wire 1 F# sub0|add_1|fa50|or1~combout $end
$var wire 1 G# mux_14|or0~0_combout $end
$var wire 1 H# mux_14|or0~1_combout $end
$var wire 1 I# sub0|add_10|fa70|xor2~combout $end
$var wire 1 J# sub0|add_10|fa60|xor2~combout $end
$var wire 1 K# sub0|add_1|fa60|or1~combout $end
$var wire 1 L# mux_15|or0~0_combout $end
$var wire 1 M# add0|fa60|or1~combout $end
$var wire 1 N# add0|fa70|xor1~combout $end
$var wire 1 O# mux_15|or0~1_combout $end
$var wire 1 P# mux_15|or0~2_combout $end
$var wire 1 Q# sub0|add_1|fa70|or1~combout $end
$var wire 1 R# add0|fa70|and2~0_combout $end
$var wire 1 S# add0|fa70|and1~combout $end
$var wire 1 T# add0|fa70|or1~combout $end
$var wire 1 U# sub0|add_10|fa80|xor2~combout $end
$var wire 1 V# mux_16|or0~0_combout $end
$var wire 1 W# mux_16|or0~1_combout $end
$var wire 1 X# add0|fa80|or1~combout $end
$var wire 1 Y# sub0|add_1|fa80|or1~combout $end
$var wire 1 Z# sub0|add_10|fa80|and1~combout $end
$var wire 1 [# mux_17|or0~0_combout $end
$var wire 1 \# mux_17|or0~1_combout $end
$var wire 1 ]# mux_18|or0~0_combout $end
$var wire 1 ^# mux_18|or0~3_combout $end
$var wire 1 _# add0|fa90|or1~combout $end
$var wire 1 `# mux_18|or0~2_combout $end
$var wire 1 a# sub0|add_1|fa90|xor1~combout $end
$var wire 1 b# sub0|add_1|fa90|and1~combout $end
$var wire 1 c# sub0|add_1|fa90|and2~combout $end
$var wire 1 d# sub0|add_1|fa90|or1~combout $end
$var wire 1 e# sub0|add_10|fa100|xor2~combout $end
$var wire 1 f# mux_18|or0~1_combout $end
$var wire 1 g# mux_18|or0~4_combout $end
$var wire 1 h# add0|fa100|or1~combout $end
$var wire 1 i# sub0|add_1|fa100|or1~combout $end
$var wire 1 j# sub0|add_10|fa200|xor2~combout $end
$var wire 1 k# mux_19|or0~0_combout $end
$var wire 1 l# mux_19|or0~1_combout $end
$var wire 1 m# sub0|add_10|fa200|and1~combout $end
$var wire 1 n# sub0|add_1|fa200|or1~combout $end
$var wire 1 o# mux_20|or0~1_combout $end
$var wire 1 p# mux_20|or0~0_combout $end
$var wire 1 q# add0|fa300|xor1~combout $end
$var wire 1 r# mux_20|or0~2_combout $end
$var wire 1 s# mux_20|or0~3_combout $end
$var wire 1 t# mux_20|or0~4_combout $end
$var wire 1 u# add0|fa300|and1~combout $end
$var wire 1 v# add0|fa300|and2~0_combout $end
$var wire 1 w# add0|fa300|or1~combout $end
$var wire 1 x# sub0|add_10|fa300|and1~combout $end
$var wire 1 y# sub0|add_1|fa300|or1~combout $end
$var wire 1 z# mux_21|or0~0_combout $end
$var wire 1 {# mux_21|or0~1_combout $end
$var wire 1 |# add0|fa400|or1~combout $end
$var wire 1 }# sub0|add_1|fa400|or1~combout $end
$var wire 1 ~# sub0|add_10|fa400|and1~combout $end
$var wire 1 !$ mux_22|or0~0_combout $end
$var wire 1 "$ mux_22|or0~1_combout $end
$var wire 1 #$ sub0|add_1|fa500|or1~combout $end
$var wire 1 $$ add0|fa500|or1~combout $end
$var wire 1 %$ mux_23|or0~4_combout $end
$var wire 1 &$ mux_23|or0~0_combout $end
$var wire 1 '$ add0|fa600|or1~combout $end
$var wire 1 ($ sub0|add_1|fa600|or1~combout $end
$var wire 1 )$ sub0|add_10|fa600|and1~combout $end
$var wire 1 *$ mux_24|or0~0_combout $end
$var wire 1 +$ mux_24|or0~2_combout $end
$var wire 1 ,$ mux_24|or0~1_combout $end
$var wire 1 -$ add0|fa700|or1~combout $end
$var wire 1 .$ mux_25|or0~0_combout $end
$var wire 1 /$ add0|fa800|xor1~combout $end
$var wire 1 0$ mux_25|or0~1_combout $end
$var wire 1 1$ mux_25|or0~2_combout $end
$var wire 1 2$ add0|fa800|and2~0_combout $end
$var wire 1 3$ add0|fa800|and1~combout $end
$var wire 1 4$ add0|fa800|or1~combout $end
$var wire 1 5$ sub0|add_1|fa800|or1~combout $end
$var wire 1 6$ sub0|add_10|fa800|and1~combout $end
$var wire 1 7$ mux_26|or0~0_combout $end
$var wire 1 8$ mux_26|or0~1_combout $end
$var wire 1 9$ add0|fa900|or1~combout $end
$var wire 1 :$ mux_27|or0~0_combout $end
$var wire 1 ;$ mux_27|or0~2_combout $end
$var wire 1 <$ mux_27|or0~1_combout $end
$var wire 1 =$ add0|fa1000|or1~combout $end
$var wire 1 >$ mux_28|or0~1_combout $end
$var wire 1 ?$ sub0|add_1|fa1000|or1~combout $end
$var wire 1 @$ mux_28|or0~2_combout $end
$var wire 1 A$ mux_28|or0~3_combout $end
$var wire 1 B$ mux_28|or0~0_combout $end
$var wire 1 C$ sub0|add_10|fa900|and1~combout $end
$var wire 1 D$ sub0|add_10|fa2000|xor2~combout $end
$var wire 1 E$ sub0|add_1|fa2000|xor1~combout $end
$var wire 1 F$ mux_28|or0~4_combout $end
$var wire 1 G$ sub0|add_10|fa3000|xor2~combout $end
$var wire 1 H$ mux_29|or0~0_combout $end
$var wire 1 I$ mux_29|or0~2_combout $end
$var wire 1 J$ mux_29|or0~1_combout $end
$var wire 1 K$ mux_29|or0~3_combout $end
$var wire 1 L$ sub0|add_1|fa3000|or1~combout $end
$var wire 1 M$ add0|fa3000|or1~combout $end
$var wire 1 N$ mux_30|or0~0_combout $end
$var wire 1 O$ mux_30|or0~1_combout $end
$var wire 1 P$ sub0|add_10|fa3000|and1~combout $end
$var wire 1 Q$ sub0|add_1|fa4000|xor1~combout $end
$var wire 1 R$ mux_30|or0~2_combout $end
$var wire 1 S$ mux_31|and0~combout $end
$var wire 1 T$ sub0|add_1|fa4000|and1~combout $end
$var wire 1 U$ mux_31|or0~0_combout $end
$var wire 1 V$ sub0|add_1|fa4000|and2~combout $end
$var wire 1 W$ sub0|add_1|fa5000|xor2~0_combout $end
$var wire 1 X$ mux_31|or0~1_combout $end
$var wire 1 Y$ mult0|dp0|counter [5] $end
$var wire 1 Z$ mult0|dp0|counter [4] $end
$var wire 1 [$ mult0|dp0|counter [3] $end
$var wire 1 \$ mult0|dp0|counter [2] $end
$var wire 1 ]$ mult0|dp0|counter [1] $end
$var wire 1 ^$ mult0|dp0|counter [0] $end
$var wire 1 _$ mult0|dp0|reg_product [63] $end
$var wire 1 `$ mult0|dp0|reg_product [62] $end
$var wire 1 a$ mult0|dp0|reg_product [61] $end
$var wire 1 b$ mult0|dp0|reg_product [60] $end
$var wire 1 c$ mult0|dp0|reg_product [59] $end
$var wire 1 d$ mult0|dp0|reg_product [58] $end
$var wire 1 e$ mult0|dp0|reg_product [57] $end
$var wire 1 f$ mult0|dp0|reg_product [56] $end
$var wire 1 g$ mult0|dp0|reg_product [55] $end
$var wire 1 h$ mult0|dp0|reg_product [54] $end
$var wire 1 i$ mult0|dp0|reg_product [53] $end
$var wire 1 j$ mult0|dp0|reg_product [52] $end
$var wire 1 k$ mult0|dp0|reg_product [51] $end
$var wire 1 l$ mult0|dp0|reg_product [50] $end
$var wire 1 m$ mult0|dp0|reg_product [49] $end
$var wire 1 n$ mult0|dp0|reg_product [48] $end
$var wire 1 o$ mult0|dp0|reg_product [47] $end
$var wire 1 p$ mult0|dp0|reg_product [46] $end
$var wire 1 q$ mult0|dp0|reg_product [45] $end
$var wire 1 r$ mult0|dp0|reg_product [44] $end
$var wire 1 s$ mult0|dp0|reg_product [43] $end
$var wire 1 t$ mult0|dp0|reg_product [42] $end
$var wire 1 u$ mult0|dp0|reg_product [41] $end
$var wire 1 v$ mult0|dp0|reg_product [40] $end
$var wire 1 w$ mult0|dp0|reg_product [39] $end
$var wire 1 x$ mult0|dp0|reg_product [38] $end
$var wire 1 y$ mult0|dp0|reg_product [37] $end
$var wire 1 z$ mult0|dp0|reg_product [36] $end
$var wire 1 {$ mult0|dp0|reg_product [35] $end
$var wire 1 |$ mult0|dp0|reg_product [34] $end
$var wire 1 }$ mult0|dp0|reg_product [33] $end
$var wire 1 ~$ mult0|dp0|reg_product [32] $end
$var wire 1 !% mult0|dp0|reg_product [31] $end
$var wire 1 "% mult0|dp0|reg_product [30] $end
$var wire 1 #% mult0|dp0|reg_product [29] $end
$var wire 1 $% mult0|dp0|reg_product [28] $end
$var wire 1 %% mult0|dp0|reg_product [27] $end
$var wire 1 &% mult0|dp0|reg_product [26] $end
$var wire 1 '% mult0|dp0|reg_product [25] $end
$var wire 1 (% mult0|dp0|reg_product [24] $end
$var wire 1 )% mult0|dp0|reg_product [23] $end
$var wire 1 *% mult0|dp0|reg_product [22] $end
$var wire 1 +% mult0|dp0|reg_product [21] $end
$var wire 1 ,% mult0|dp0|reg_product [20] $end
$var wire 1 -% mult0|dp0|reg_product [19] $end
$var wire 1 .% mult0|dp0|reg_product [18] $end
$var wire 1 /% mult0|dp0|reg_product [17] $end
$var wire 1 0% mult0|dp0|reg_product [16] $end
$var wire 1 1% mult0|dp0|reg_product [15] $end
$var wire 1 2% mult0|dp0|reg_product [14] $end
$var wire 1 3% mult0|dp0|reg_product [13] $end
$var wire 1 4% mult0|dp0|reg_product [12] $end
$var wire 1 5% mult0|dp0|reg_product [11] $end
$var wire 1 6% mult0|dp0|reg_product [10] $end
$var wire 1 7% mult0|dp0|reg_product [9] $end
$var wire 1 8% mult0|dp0|reg_product [8] $end
$var wire 1 9% mult0|dp0|reg_product [7] $end
$var wire 1 :% mult0|dp0|reg_product [6] $end
$var wire 1 ;% mult0|dp0|reg_product [5] $end
$var wire 1 <% mult0|dp0|reg_product [4] $end
$var wire 1 =% mult0|dp0|reg_product [3] $end
$var wire 1 >% mult0|dp0|reg_product [2] $end
$var wire 1 ?% mult0|dp0|reg_product [1] $end
$var wire 1 @% mult0|dp0|reg_product [0] $end
$upscope $end
$upscope $end
$enddefinitions $end
#0
$dumpvars
b101 !
b10 "
b11 #
0$
1%
0E
0D
0C
0B
0A
0@
0?
0>
0=
0<
0;
0:
09
08
07
06
05
04
03
02
01
00
0/
0.
0-
0,
0+
0*
0)
0(
0'
0&
0F
1G
xH
1I
1J
1K
0L
0M
0N
0O
1P
1Q
1R
1S
0T
0U
0V
0W
0X
0Y
0Z
0[
0\
0]
0^
0_
0`
0a
0b
0c
0d
0e
0f
0g
0h
0i
0j
0k
0l
0m
0n
0o
0p
0q
0r
0s
0t
0u
0v
0w
0x
0y
0z
0{
0|
0}
0~
0!!
0"!
0#!
0$!
0%!
0&!
0'!
0(!
0)!
0*!
0+!
0,!
0-!
0.!
0/!
00!
01!
12!
13!
04!
05!
06!
17!
08!
19!
0:!
0;!
0<!
0=!
0>!
0?!
0@!
0A!
0B!
0C!
0D!
0E!
0F!
0G!
0H!
0I!
0J!
0K!
0L!
0M!
0N!
0O!
0P!
0Q!
0R!
0S!
0T!
0U!
0V!
0W!
0X!
0Y!
0Z!
0[!
0\!
0]!
0^!
0_!
0`!
0a!
0b!
0c!
0d!
0e!
0f!
0g!
0h!
0i!
0j!
0k!
0l!
0m!
0n!
0o!
0p!
0q!
0r!
0s!
0t!
0u!
0v!
0w!
0x!
0y!
0z!
0{!
0|!
0}!
0~!
0!"
0""
0#"
0$"
0%"
0&"
0'"
0("
0)"
0*"
0+"
0,"
0-"
0."
0/"
10"
01"
02"
03"
04"
05"
16"
07"
08"
09"
0:"
0;"
0<"
0="
0>"
0?"
0@"
0A"
0B"
0C"
0D"
0E"
0F"
0G"
1H"
1I"
1J"
0K"
0L"
0M"
0N"
1O"
0P"
0Q"
0R"
0S"
1T"
1U"
0V"
0W"
1X"
0Y"
0Z"
0["
0\"
0]"
0^"
1_"
0`"
1a"
0b"
0c"
0d"
0e"
0f"
1g"
0h"
0i"
1j"
1k"
0l"
0m"
1n"
0o"
0p"
0q"
0r"
0s"
1t"
0u"
1v"
1w"
0x"
0y"
1z"
0{"
0|"
0}"
0~"
0!#
1"#
0##
0$#
0%#
0&#
0'#
1(#
1)#
0*#
0+#
0,#
0-#
1.#
0/#
00#
01#
12#
03#
04#
15#
06#
17#
18#
09#
0:#
1;#
0<#
1=#
1>#
0?#
0@#
0A#
0B#
0C#
0D#
0E#
0F#
0G#
0H#
1I#
1J#
0K#
0L#
0M#
0N#
0O#
0P#
1Q#
0R#
0S#
1T#
1U#
0V#
0W#
0X#
1Y#
0Z#
0[#
0\#
0]#
0^#
1_#
0`#
1a#
1b#
0c#
0d#
1e#
0f#
0g#
0h#
1i#
1j#
0k#
0l#
0m#
0n#
0o#
0p#
0q#
0r#
0s#
0t#
0u#
0v#
1w#
0x#
1y#
0z#
0{#
0|#
1}#
1~#
0!$
0"$
1#$
0$$
0%$
0&$
0'$
1($
0)$
0*$
0+$
0,$
0-$
0.$
0/$
00$
01$
02$
03$
14$
15$
06$
07$
08$
09$
0:$
0;$
0<$
1=$
0>$
1?$
0@$
0A$
0B$
0C$
1D$
1E$
0F$
1G$
0H$
0I$
0J$
0K$
1L$
0M$
0N$
0O$
0P$
1Q$
0R$
0S$
1T$
0U$
0V$
1W$
0X$
0^$
0]$
0\$
0[$
0Z$
0Y$
0@%
0?%
0>%
0=%
0<%
0;%
0:%
09%
08%
07%
06%
05%
04%
03%
02%
01%
00%
0/%
0.%
0-%
0,%
0+%
0*%
0)%
0(%
0'%
0&%
0%%
0$%
0#%
0"%
0!%
0~$
0}$
0|$
0{$
0z$
0y$
0x$
0w$
0v$
0u$
0t$
0s$
0r$
0q$
0p$
0o$
0n$
0m$
0l$
0k$
0j$
0i$
0h$
0g$
0f$
0e$
0d$
0c$
0b$
0a$
0`$
0_$
$end
#5000
1$
1N
1O
1@%
1?%
1N"
1L"
1E
1D
#10000
0$
0N
0O
#15000
1$
1N
1O
#20000
0$
0N
0O
#25000
1$
1N
1O
#30000
0$
0N
0O
#35000
1$
1N
1O
#40000
0%
0$
00"
0N
0O
1@"
14"
