project/correct previous hw/multiplier/simulation/qsim/mult.msim.vcd
$comment
	File created using the following command:
		vcd file mult.msim.vcd -direction
$end
$date
	Fri Dec 30 17:51:34 2022
$end
$version
	ModelSim Version 10.5b
$end
$timescale
	1ps
$end

$scope module mult_vlg_vec_tst $end
$var reg 1 ! clock $end
$var reg 32 " multiplicand [31:0] $end
$var reg 32 # multiplier [31:0] $end
$var reg 1 $ reset $end
$var wire 1 % product [63] $end
$var wire 1 & product [62] $end
$var wire 1 ' product [61] $end
$var wire 1 ( product [60] $end
$var wire 1 ) product [59] $end
$var wire 1 * product [58] $end
$var wire 1 + product [57] $end
$var wire 1 , product [56] $end
$var wire 1 - product [55] $end
$var wire 1 . product [54] $end
$var wire 1 / product [53] $end
$var wire 1 0 product [52] $end
$var wire 1 1 product [51] $end
$var wire 1 2 product [50] $end
$var wire 1 3 product [49] $end
$var wire 1 4 product [48] $end
$var wire 1 5 product [47] $end
$var wire 1 6 product [46] $end
$var wire 1 7 product [45] $end
$var wire 1 8 product [44] $end
$var wire 1 9 product [43] $end
$var wire 1 : product [42] $end
$var wire 1 ; product [41] $end
$var wire 1 < product [40] $end
$var wire 1 = product [39] $end
$var wire 1 > product [38] $end
$var wire 1 ? product [37] $end
$var wire 1 @ product [36] $end
$var wire 1 A product [35] $end
$var wire 1 B product [34] $end
$var wire 1 C product [33] $end
$var wire 1 D product [32] $end
$var wire 1 E product [31] $end
$var wire 1 F product [30] $end
$var wire 1 G product [29] $end
$var wire 1 H product [28] $end
$var wire 1 I product [27] $end
$var wire 1 J product [26] $end
$var wire 1 K product [25] $end
$var wire 1 L product [24] $end
$var wire 1 M product [23] $end
$var wire 1 N product [22] $end
$var wire 1 O product [21] $end
$var wire 1 P product [20] $end
$var wire 1 Q product [19] $end
$var wire 1 R product [18] $end
$var wire 1 S product [17] $end
$var wire 1 T product [16] $end
$var wire 1 U product [15] $end
$var wire 1 V product [14] $end
$var wire 1 W product [13] $end
$var wire 1 X product [12] $end
$var wire 1 Y product [11] $end
$var wire 1 Z product [10] $end
$var wire 1 [ product [9] $end
$var wire 1 \ product [8] $end
$var wire 1 ] product [7] $end
$var wire 1 ^ product [6] $end
$var wire 1 _ product [5] $end
$var wire 1 ` product [4] $end
$var wire 1 a product [3] $end
$var wire 1 b product [2] $end
$var wire 1 c product [1] $end
$var wire 1 d product [0] $end
$var wire 1 e state [1] $end
$var wire 1 f state [0] $end

$scope module i1 $end
$var wire 1 g gnd $end
$var wire 1 h vcc $end
$var wire 1 i unknown $end
$var tri1 1 j devclrn $end
$var tri1 1 k devpor $end
$var tri1 1 l devoe $end
$var wire 1 m ~QUARTUS_CREATED_GND~I_combout $end
$var wire 1 n clock~input_o $end
$var wire 1 o clock~inputCLKENA0_outclk $end
$var wire 1 p multiplier[0]~input_o $end
$var wire 1 q dp0|reg_product[0]~feeder_combout $end
$var wire 1 r multiplier[1]~input_o $end
$var wire 1 s dp0|reg_product[1]~feeder_combout $end
$var wire 1 t multiplier[2]~input_o $end
$var wire 1 u dp0|reg_product[2]~feeder_combout $end
$var wire 1 v multiplier[3]~input_o $end
$var wire 1 w dp0|reg_product[3]~feeder_combout $end
$var wire 1 x multiplier[4]~input_o $end
$var wire 1 y dp0|reg_product[4]~feeder_combout $end
$var wire 1 z multiplier[5]~input_o $end
$var wire 1 { dp0|reg_product[5]~feeder_combout $end
$var wire 1 | multiplier[6]~input_o $end
$var wire 1 } dp0|reg_product[6]~feeder_combout $end
$var wire 1 ~ multiplier[7]~input_o $end
$var wire 1 !! dp0|reg_product[7]~feeder_combout $end
$var wire 1 "! multiplier[8]~input_o $end
$var wire 1 #! dp0|reg_product[8]~feeder_combout $end
$var wire 1 $! multiplier[9]~input_o $end
$var wire 1 %! dp0|reg_product[9]~feeder_combout $end
$var wire 1 &! multiplier[10]~input_o $end
$var wire 1 '! dp0|reg_product[10]~feeder_combout $end
$var wire 1 (! multiplier[11]~input_o $end
$var wire 1 )! dp0|reg_product[11]~feeder_combout $end
$var wire 1 *! multiplier[12]~input_o $end
$var wire 1 +! dp0|reg_product[12]~feeder_combout $end
$var wire 1 ,! multiplier[13]~input_o $end
$var wire 1 -! dp0|reg_product[13]~feeder_combout $end
$var wire 1 .! multiplier[14]~input_o $end
$var wire 1 /! dp0|reg_product[14]~feeder_combout $end
$var wire 1 0! multiplier[15]~input_o $end
$var wire 1 1! dp0|reg_product[15]~feeder_combout $end
$var wire 1 2! multiplier[16]~input_o $end
$var wire 1 3! dp0|reg_product[16]~feeder_combout $end
$var wire 1 4! multiplier[17]~input_o $end
$var wire 1 5! dp0|reg_product[17]~feeder_combout $end
$var wire 1 6! multiplier[18]~input_o $end
$var wire 1 7! dp0|reg_product[18]~feeder_combout $end
$var wire 1 8! multiplier[19]~input_o $end
$var wire 1 9! dp0|reg_product[19]~feeder_combout $end
$var wire 1 :! multiplier[20]~input_o $end
$var wire 1 ;! dp0|reg_product[20]~feeder_combout $end
$var wire 1 <! multiplier[21]~input_o $end
$var wire 1 =! dp0|reg_product[21]~feeder_combout $end
$var wire 1 >! multiplier[22]~input_o $end
$var wire 1 ?! dp0|reg_product[22]~feeder_combout $end
$var wire 1 @! multiplier[23]~input_o $end
$var wire 1 A! dp0|reg_product[23]~feeder_combout $end
$var wire 1 B! multiplier[24]~input_o $end
$var wire 1 C! dp0|reg_product[24]~feeder_combout $end
$var wire 1 D! multiplier[25]~input_o $end
$var wire 1 E! dp0|reg_product[25]~feeder_combout $end
$var wire 1 F! multiplier[26]~input_o $end
$var wire 1 G! dp0|reg_product[26]~feeder_combout $end
$var wire 1 H! multiplier[27]~input_o $end
$var wire 1 I! dp0|reg_product[27]~feeder_combout $end
$var wire 1 J! multiplier[28]~input_o $end
$var wire 1 K! dp0|reg_product[28]~feeder_combout $end
$var wire 1 L! multiplier[29]~input_o $end
$var wire 1 M! dp0|reg_product[29]~feeder_combout $end
$var wire 1 N! multiplier[30]~input_o $end
$var wire 1 O! dp0|reg_product[30]~feeder_combout $end
$var wire 1 P! multiplier[31]~input_o $end
$var wire 1 Q! dp0|reg_product[31]~feeder_combout $end
$var wire 1 R! multiplicand[0]~input_o $end
$var wire 1 S! dp0|Add1~1_sumout $end
$var wire 1 T! multiplicand[1]~input_o $end
$var wire 1 U! dp0|Add1~2 $end
$var wire 1 V! dp0|Add1~5_sumout $end
$var wire 1 W! multiplicand[2]~input_o $end
$var wire 1 X! dp0|Add1~6 $end
$var wire 1 Y! dp0|Add1~9_sumout $end
$var wire 1 Z! multiplicand[3]~input_o $end
$var wire 1 [! dp0|Add1~10 $end
$var wire 1 \! dp0|Add1~13_sumout $end
$var wire 1 ]! multiplicand[4]~input_o $end
$var wire 1 ^! dp0|Add1~14 $end
$var wire 1 _! dp0|Add1~17_sumout $end
$var wire 1 `! multiplicand[5]~input_o $end
$var wire 1 a! dp0|Add1~18 $end
$var wire 1 b! dp0|Add1~21_sumout $end
$var wire 1 c! multiplicand[6]~input_o $end
$var wire 1 d! dp0|Add1~22 $end
$var wire 1 e! dp0|Add1~25_sumout $end
$var wire 1 f! multiplicand[7]~input_o $end
$var wire 1 g! dp0|Add1~26 $end
$var wire 1 h! dp0|Add1~29_sumout $end
$var wire 1 i! multiplicand[8]~input_o $end
$var wire 1 j! dp0|Add1~30 $end
$var wire 1 k! dp0|Add1~33_sumout $end
$var wire 1 l! multiplicand[9]~input_o $end
$var wire 1 m! dp0|Add1~34 $end
$var wire 1 n! dp0|Add1~37_sumout $end
$var wire 1 o! multiplicand[10]~input_o $end
$var wire 1 p! dp0|Add1~38 $end
$var wire 1 q! dp0|Add1~41_sumout $end
$var wire 1 r! multiplicand[11]~input_o $end
$var wire 1 s! dp0|Add1~42 $end
$var wire 1 t! dp0|Add1~45_sumout $end
$var wire 1 u! multiplicand[12]~input_o $end
$var wire 1 v! dp0|Add1~46 $end
$var wire 1 w! dp0|Add1~49_sumout $end
$var wire 1 x! multiplicand[13]~input_o $end
$var wire 1 y! dp0|Add1~50 $end
$var wire 1 z! dp0|Add1~53_sumout $end
$var wire 1 {! multiplicand[14]~input_o $end
$var wire 1 |! dp0|Add1~54 $end
$var wire 1 }! dp0|Add1~57_sumout $end
$var wire 1 ~! multiplicand[15]~input_o $end
$var wire 1 !" dp0|Add1~58 $end
$var wire 1 "" dp0|Add1~61_sumout $end
$var wire 1 #" multiplicand[16]~input_o $end
$var wire 1 $" dp0|Add1~62 $end
$var wire 1 %" dp0|Add1~65_sumout $end
$var wire 1 &" multiplicand[17]~input_o $end
$var wire 1 '" dp0|Add1~66 $end
$var wire 1 (" dp0|Add1~69_sumout $end
$var wire 1 )" multiplicand[18]~input_o $end
$var wire 1 *" dp0|Add1~70 $end
$var wire 1 +" dp0|Add1~73_sumout $end
$var wire 1 ," multiplicand[19]~input_o $end
$var wire 1 -" dp0|Add1~74 $end
$var wire 1 ." dp0|Add1~77_sumout $end
$var wire 1 /" multiplicand[20]~input_o $end
$var wire 1 0" dp0|Add1~78 $end
$var wire 1 1" dp0|Add1~81_sumout $end
$var wire 1 2" multiplicand[21]~input_o $end
$var wire 1 3" dp0|Add1~82 $end
$var wire 1 4" dp0|Add1~85_sumout $end
$var wire 1 5" multiplicand[22]~input_o $end
$var wire 1 6" dp0|Add1~86 $end
$var wire 1 7" dp0|Add1~89_sumout $end
$var wire 1 8" multiplicand[23]~input_o $end
$var wire 1 9" dp0|Add1~90 $end
$var wire 1 :" dp0|Add1~93_sumout $end
$var wire 1 ;" multiplicand[24]~input_o $end
$var wire 1 <" dp0|Add1~94 $end
$var wire 1 =" dp0|Add1~97_sumout $end
$var wire 1 >" multiplicand[25]~input_o $end
$var wire 1 ?" dp0|Add1~98 $end
$var wire 1 @" dp0|Add1~101_sumout $end
$var wire 1 A" multiplicand[26]~input_o $end
$var wire 1 B" dp0|Add1~102 $end
$var wire 1 C" dp0|Add1~105_sumout $end
$var wire 1 D" multiplicand[27]~input_o $end
$var wire 1 E" dp0|Add1~106 $end
$var wire 1 F" dp0|Add1~109_sumout $end
$var wire 1 G" multiplicand[28]~input_o $end
$var wire 1 H" dp0|Add1~110 $end
$var wire 1 I" dp0|Add1~113_sumout $end
$var wire 1 J" multiplicand[29]~input_o $end
$var wire 1 K" dp0|Add1~114 $end
$var wire 1 L" dp0|Add1~117_sumout $end
$var wire 1 M" multiplicand[30]~input_o $end
$var wire 1 N" dp0|Add1~118 $end
$var wire 1 O" dp0|Add1~121_sumout $end
$var wire 1 P" reset~input_o $end
$var wire 1 Q" dp0|counter_in[0]~4_combout $end
$var wire 1 R" c0|current_state.START~0_combout $end
$var wire 1 S" c0|current_state.START~feeder_combout $end
$var wire 1 T" c0|current_state.START~q $end
$var wire 1 U" c0|write_counter~combout $end
$var wire 1 V" dp0|counter_in[1]~5_combout $end
$var wire 1 W" dp0|counter[0]~DUPLICATE_q $end
$var wire 1 X" dp0|counter_in[2]~3_combout $end
$var wire 1 Y" dp0|counter[2]~DUPLICATE_q $end
$var wire 1 Z" dp0|counter_in[3]~2_combout $end
$var wire 1 [" dp0|counter_in[4]~1_combout $end
$var wire 1 \" dp0|Add0~0_combout $end
$var wire 1 ]" dp0|counter_in[5]~0_combout $end
$var wire 1 ^" c0|current_state~9_combout $end
$var wire 1 _" c0|current_state.CHECK~q $end
$var wire 1 `" c0|current_state~8_combout $end
$var wire 1 a" c0|current_state.ADD~q $end
$var wire 1 b" c0|current_state~10_combout $end
$var wire 1 c" c0|current_state.SHIFT~q $end
$var wire 1 d" multiplicand[31]~input_o $end
$var wire 1 e" dp0|Add1~122 $end
$var wire 1 f" dp0|Add1~125_sumout $end
$var wire 1 g" dp0|mux_add[63]~0_combout $end
$var wire 1 h" dp0|reg_product[32]~1_combout $end
$var wire 1 i" dp0|reg_product[0]~0_combout $end
$var wire 1 j" c0|state~1_combout $end
$var wire 1 k" c0|state~2_combout $end
$var wire 1 l" dp0|counter [5] $end
$var wire 1 m" dp0|counter [4] $end
$var wire 1 n" dp0|counter [3] $end
$var wire 1 o" dp0|counter [2] $end
$var wire 1 p" dp0|counter [1] $end
$var wire 1 q" dp0|counter [0] $end
$var wire 1 r" dp0|reg_product [63] $end
$var wire 1 s" dp0|reg_product [62] $end
$var wire 1 t" dp0|reg_product [61] $end
$var wire 1 u" dp0|reg_product [60] $end
$var wire 1 v" dp0|reg_product [59] $end
$var wire 1 w" dp0|reg_product [58] $end
$var wire 1 x" dp0|reg_product [57] $end
$var wire 1 y" dp0|reg_product [56] $end
$var wire 1 z" dp0|reg_product [55] $end
$var wire 1 {" dp0|reg_product [54] $end
$var wire 1 |" dp0|reg_product [53] $end
$var wire 1 }" dp0|reg_product [52] $end
$var wire 1 ~" dp0|reg_product [51] $end
$var wire 1 !# dp0|reg_product [50] $end
$var wire 1 "# dp0|reg_product [49] $end
$var wire 1 ## dp0|reg_product [48] $end
$var wire 1 $# dp0|reg_product [47] $end
$var wire 1 %# dp0|reg_product [46] $end
$var wire 1 &# dp0|reg_product [45] $end
$var wire 1 '# dp0|reg_product [44] $end
$var wire 1 (# dp0|reg_product [43] $end
$var wire 1 )# dp0|reg_product [42] $end
$var wire 1 *# dp0|reg_product [41] $end
$var wire 1 +# dp0|reg_product [40] $end
$var wire 1 ,# dp0|reg_product [39] $end
$var wire 1 -# dp0|reg_product [38] $end
$var wire 1 .# dp0|reg_product [37] $end
$var wire 1 /# dp0|reg_product [36] $end
$var wire 1 0# dp0|reg_product [35] $end
$var wire 1 1# dp0|reg_product [34] $end
$var wire 1 2# dp0|reg_product [33] $end
$var wire 1 3# dp0|reg_product [32] $end
$var wire 1 4# dp0|reg_product [31] $end
$var wire 1 5# dp0|reg_product [30] $end
$var wire 1 6# dp0|reg_product [29] $end
$var wire 1 7# dp0|reg_product [28] $end
$var wire 1 8# dp0|reg_product [27] $end
$var wire 1 9# dp0|reg_product [26] $end
$var wire 1 :# dp0|reg_product [25] $end
$var wire 1 ;# dp0|reg_product [24] $end
$var wire 1 <# dp0|reg_product [23] $end
$var wire 1 =# dp0|reg_product [22] $end
$var wire 1 ># dp0|reg_product [21] $end
$var wire 1 ?# dp0|reg_product [20] $end
$var wire 1 @# dp0|reg_product [19] $end
$var wire 1 A# dp0|reg_product [18] $end
$var wire 1 B# dp0|reg_product [17] $end
$var wire 1 C# dp0|reg_product [16] $end
$var wire 1 D# dp0|reg_product [15] $end
$var wire 1 E# dp0|reg_product [14] $end
$var wire 1 F# dp0|reg_product [13] $end
$var wire 1 G# dp0|reg_product [12] $end
$var wire 1 H# dp0|reg_product [11] $end
$var wire 1 I# dp0|reg_product [10] $end
$var wire 1 J# dp0|reg_product [9] $end
$var wire 1 K# dp0|reg_product [8] $end
$var wire 1 L# dp0|reg_product [7] $end
$var wire 1 M# dp0|reg_product [6] $end
$var wire 1 N# dp0|reg_product [5] $end
$var wire 1 O# dp0|reg_product [4] $end
$var wire 1 P# dp0|reg_product [3] $end
$var wire 1 Q# dp0|reg_product [2] $end
$var wire 1 R# dp0|reg_product [1] $end
$var wire 1 S# dp0|reg_product [0] $end
$upscope $end
$upscope $end
$enddefinitions $end
#0
$dumpvars
0!
b11 "
b101 #
1$
0d
0c
0b
0a
0`
0_
0^
0]
0\
0[
0Z
0Y
0X
0W
0V
0U
0T
0S
0R
0Q
0P
0O
0N
0M
0L
0K
0J
0I
0H
0G
0F
0E
0D
0C
0B
0A
0@
0?
0>
0=
0<
0;
0:
09
08
07
06
05
04
03
02
01
00
0/
0.
0-
0,
0+
0*
0)
0(
0'
0&
0%
0f
0e
0g
1h
xi
1j
1k
1l
0m
0n
0o
1p
1q
0r
0s
1t
1u
0v
0w
0x
0y
0z
0{
0|
0}
0~
0!!
0"!
0#!
0$!
0%!
0&!
0'!
0(!
0)!
0*!
0+!
0,!
0-!
0.!
0/!
00!
01!
02!
03!
04!
05!
06!
07!
08!
09!
0:!
0;!
0<!
0=!
0>!
0?!
0@!
0A!
0B!
0C!
0D!
0E!
0F!
0G!
0H!
0I!
0J!
0K!
0L!
0M!
0N!
0O!
0P!
0Q!
1R!
1S!
1T!
0U!
1V!
0W!
0X!
0Y!
0Z!
0[!
0\!
0]!
0^!
0_!
0`!
0a!
0b!
0c!
0d!
0e!
0f!
0g!
0h!
0i!
0j!
0k!
0l!
0m!
0n!
0o!
0p!
0q!
0r!
0s!
0t!
0u!
0v!
0w!
0x!
0y!
0z!
0{!
0|!
0}!
0~!
0!"
0""
0#"
0$"
0%"
0&"
0'"
0("
0)"
0*"
0+"
0,"
0-"
0."
0/"
00"
01"
02"
03"
04"
05"
06"
07"
08"
09"
0:"
0;"
0<"
0="
0>"
0?"
0@"
0A"
0B"
0C"
0D"
0E"
0F"
0G"
0H"
0I"
0J"
0K"
0L"
0M"
0N"
0O"
1P"
0Q"
0R"
0S"
0T"
1U"
0V"
0W"
0X"
0Y"
0Z"
0["
0\"
0]"
0^"
0_"
0`"
0a"
0b"
0c"
0d"
0e"
0f"
0g"
1h"
1i"
1j"
1k"
0q"
0p"
0o"
0n"
0m"
0l"
0S#
0R#
0Q#
0P#
0O#
0N#
0M#
0L#
0K#
0J#
0I#
0H#
0G#
0F#
0E#
0D#
0C#
0B#
0A#
0@#
0?#
0>#
0=#
0<#
0;#
0:#
09#
08#
07#
06#
05#
04#
03#
02#
01#
00#
0/#
0.#
0-#
0,#
0+#
0*#
0)#
0(#
0'#
0&#
0%#
0$#
0##
0"#
0!#
0~"
0}"
0|"
0{"
0z"
0y"
0x"
0w"
0v"
0u"
0t"
0s"
0r"
$end
#5000
1!
1n
1o
1S#
1Q#
1b
1d
#10000
0!
0n
0o
#15000
1!
1n
1o
#20000
0!
0n
0o
#25000
1!
1n
1o
#30000
0!
0n
0o
#35000
1!
1n
1o
#40000
0$
0!
0P"
0n
0o
1R"
1^"
1S"
#45000
1!
1n
1o
1_"
1T"
0j"
0i"
0h"
0U"
0^"
1`"
1f
#50000
0!
0n
0o
#55000
1!
1n
1o
1a"
0_"
0k"
1h"
1j"
1b"
0`"
0f
1e
#60000
0!
0n
0o
#65000
1!
1n
1o
1c"
0a"
13#
12#
1C
1D
0j"
1i"
1U"
1X!
1U!
0b"
1^"
1Q"
0V!
0S!
1f
1Y!
1V!
#70000
0!
0n
0o
#75000
1!
1n
1o
0c"
1_"
1W"
1q"
0S#
1R#
0Q#
14#
02#
0C
1E
0b
1c
0d
1k"
0i"
0h"
0U"
0Q"
1b"
0^"
0V!
0e
#80000
0!
0n
0o
#85000
1!
1n
1o
1c"
0_"
0k"
1i"
1h"
1U"
0b"
1^"
1V"
1e
#90000
0!
0n
0o
#95000
1!
1n
1o
0c"
1_"
0W"
1p"
0q"
1S#
0R#
15#
03#
0D
1F
0c
1d
1k"
0i"
0h"
0U"
0U!
0V"
1`"
0^"
1S!
0e
0X!
1V!
0Y!
#100000
0!
0n
0o
#105000
1!
1n
1o
1a"
0_"
0k"
1h"
1j"
1b"
0`"
0f
1e
#110000
0!
0n
0o
#115000
1!
1n
1o
1c"
0a"
13#
12#
1C
1D
0j"
1i"
1U"
1X!
1U!
0b"
1^"
1V"
1Q"
0V!
0S!
1f
1Y!
1V!
#120000
0!
0n
0o
#125000
1!
1n
1o
0c"
1_"
1W"
1q"
0S#
16#
02#
0C
1G
0d
1k"
0i"
0h"
0U"
0V"
0Q"
1b"
0^"
0V!
0e
#130000
0!
0n
0o
#135000
1!
1n
1o
1c"
0_"
0k"
1i"
1h"
1U"
0b"
1^"
1X"
1e
#140000
0!
0n
0o
#145000
1!
1n
1o
0c"
1_"
1Y"
1o"
0W"
0p"
0q"
17#
03#
0D
1H
1k"
0i"
0h"
0U"
0U!
0X"
1b"
0^"
1S!
0e
0X!
1V!
0Y!
#150000
0!
0n
0o
#155000
1!
1n
1o
1c"
0_"
0k"
1i"
1h"
1U"
0b"
1^"
1X"
1Q"
1e
#160000
0!
0n
0o
#165000
1!
1n
1o
0c"
1_"
1W"
1q"
18#
04#
0E
1I
1k"
0i"
0h"
0U"
0Q"
0X"
1b"
0^"
0e
#170000
0!
0n
0o
#175000
1!
1n
1o
1c"
0_"
0k"
1i"
1h"
1U"
0b"
1^"
1X"
1V"
1e
#180000
0!
0n
0o
#185000
1!
1n
1o
0c"
1_"
0W"
1p"
0q"
19#
05#
0F
1J
1k"
0i"
0h"
0U"
0V"
0X"
1b"
0^"
0e
#190000
0!
0n
0o
#195000
1!
1n
1o
1c"
0_"
0k"
1i"
1h"
1U"
0b"
1^"
1X"
1V"
1Q"
1e
#200000
0!
0n
0o
#205000
1!
1n
1o
0c"
1_"
1W"
1q"
1:#
06#
0G
1K
1k"
0i"
0h"
0U"
0V"
0Q"
0X"
1b"
0^"
0e
#210000
0!
0n
0o
#215000
1!
1n
1o
1c"
0_"
0k"
1i"
1h"
1U"
0b"
1^"
1Z"
1e
#220000
0!
0n
0o
#225000
1!
1n
1o
0c"
1_"
1n"
0Y"
0o"
0W"
0p"
0q"
1;#
07#
0H
1L
1k"
0i"
0h"
0U"
0Z"
1b"
0^"
0e
#230000
0!
0n
0o
#235000
1!
1n
1o
1c"
0_"
0k"
1i"
1h"
1U"
0b"
1^"
1Z"
1Q"
1e
#240000
0!
0n
0o
#245000
1!
1n
1o
0c"
1_"
1W"
1q"
1<#
08#
0I
1M
1k"
0i"
0h"
0U"
0Q"
0Z"
1b"
0^"
0e
#250000
0!
0n
0o
#255000
1!
1n
1o
1c"
0_"
0k"
1i"
1h"
1U"
0b"
1^"
1Z"
1V"
1e
#260000
0!
0n
0o
#265000
1!
1n
1o
0c"
1_"
0W"
1p"
0q"
1=#
09#
0J
1N
1k"
0i"
0h"
0U"
0V"
0Z"
1b"
0^"
0e
#270000
0!
0n
0o
#275000
1!
1n
1o
1c"
0_"
0k"
1i"
1h"
1U"
0b"
1^"
1Z"
1V"
1Q"
1e
#280000
0!
0n
0o
#285000
1!
1n
1o
0c"
1_"
1W"
1q"
1>#
0:#
0K
1O
1k"
0i"
0h"
0U"
0V"
0Q"
0Z"
1b"
0^"
0e
#290000
0!
0n
0o
#295000
1!
1n
1o
1c"
0_"
0k"
1i"
1h"
1U"
0b"
1^"
1Z"
1X"
1e
#300000
0!
0n
0o
#305000
1!
1n
1o
0c"
1_"
1Y"
1o"
0W"
0p"
0q"
1?#
0;#
0L
1P
1k"
0i"
0h"
0U"
0Z"
0X"
1b"
0^"
0e
#310000
0!
0n
0o
#315000
1!
1n
1o
1c"
0_"
0k"
1i"
1h"
1U"
0b"
1^"
1Z"
1X"
1Q"
1e
#320000
0!
0n
0o
#325000
1!
1n
1o
0c"
1_"
1W"
1q"
1@#
0<#
0M
1Q
1k"
0i"
0h"
0U"
0Q"
0Z"
0X"
1b"
0^"
0e
#330000
0!
0n
0o
#335000
1!
1n
1o
1c"
0_"
0k"
1i"
1h"
1U"
0b"
1^"
1Z"
1X"
1V"
1e
#340000
0!
0n
0o
#345000
1!
1n
1o
0c"
1_"
0W"
1p"
0q"
1A#
0=#
0N
1R
1k"
0i"
0h"
0U"
0V"
0Z"
0X"
1b"
0^"
0e
#350000
0!
0n
0o
#355000
1!
1n
1o
1c"
0_"
0k"
1i"
1h"
1U"
0b"
1^"
1Z"
1X"
1V"
1Q"
1e
#360000
0!
0n
0o
#365000
1!
1n
1o
0c"
1_"
1W"
1q"
1B#
0>#
0O
1S
1\"
1k"
0i"
0h"
0U"
0V"
0Q"
0Z"
0X"
1b"
0^"
0e
#370000
0!
0n
0o
#375000
1!
1n
1o
1c"
0_"
0k"
1i"
1h"
1U"
0b"
1^"
1["
1e
#380000
0!
0n
0o
#385000
1!
1n
1o
0c"
1_"
1m"
0n"
0Y"
0o"
0W"
0p"
0q"
1C#
0?#
0P
1T
0\"
1k"
0i"
0h"
0U"
0["
1b"
0^"
0e
#390000
0!
0n
0o
#395000
1!
1n
1o
1c"
0_"
0k"
1i"
1h"
1U"
0b"
1^"
1["
1Q"
1e
#400000
0!
0n
0o
#405000
1!
1n
1o
0c"
1_"
1W"
1q"
1D#
0@#
0Q
1U
1k"
0i"
0h"
0U"
0Q"
0["
1b"
0^"
0e
#410000
0!
0n
0o
#415000
1!
1n
1o
1c"
0_"
0k"
1i"
1h"
1U"
0b"
1^"
1["
1V"
1e
#420000
0!
0n
0o
#425000
1!
1n
1o
0c"
1_"
0W"
1p"
0q"
1E#
0A#
0R
1V
1k"
0i"
0h"
0U"
0V"
0["
1b"
0^"
0e
#430000
0!
0n
0o
#435000
1!
1n
1o
1c"
0_"
0k"
1i"
1h"
1U"
0b"
1^"
1["
1V"
1Q"
1e
#440000
0!
0n
0o
#445000
1!
1n
1o
0c"
1_"
1W"
1q"
1F#
0B#
0S
1W
1k"
0i"
0h"
0U"
0V"
0Q"
0["
1b"
0^"
0e
#450000
0!
0n
0o
#455000
1!
1n
1o
1c"
0_"
0k"
1i"
1h"
1U"
0b"
1^"
1["
1X"
1e
#460000
0!
0n
0o
#465000
1!
1n
1o
0c"
1_"
1Y"
1o"
0W"
0p"
0q"
1G#
0C#
0T
1X
1k"
0i"
0h"
0U"
0["
0X"
1b"
0^"
0e
#470000
0!
0n
0o
#475000
1!
1n
1o
1c"
0_"
0k"
1i"
1h"
1U"
0b"
1^"
1["
1X"
1Q"
1e
#480000
0!
0n
0o
#485000
1!
1n
1o
0c"
1_"
1W"
1q"
1H#
0D#
0U
1Y
1k"
0i"
0h"
0U"
0Q"
0["
0X"
1b"
0^"
0e
#490000
0!
0n
0o
#495000
1!
1n
1o
1c"
0_"
0k"
1i"
1h"
1U"
0b"
1^"
1["
1X"
1V"
1e
#500000
0!
0n
0o
#505000
1!
1n
1o
0c"
1_"
0W"
1p"
0q"
1I#
0E#
0V
1Z
1k"
0i"
0h"
0U"
0V"
0["
0X"
1b"
0^"
0e
#510000
0!
0n
0o
#515000
1!
1n
1o
1c"
0_"
0k"
1i"
1h"
1U"
0b"
1^"
1["
1X"
1V"
1Q"
1e
#520000
0!
0n
0o
#525000
1!
1n
1o
0c"
1_"
1W"
1q"
1J#
0F#
0W
1[
1k"
0i"
0h"
0U"
0V"
0Q"
0["
0X"
1b"
0^"
0e
#530000
0!
0n
0o
#535000
1!
1n
1o
1c"
0_"
0k"
1i"
1h"
1U"
0b"
1^"
1["
1Z"
1e
#540000
0!
0n
0o
#545000
1!
1n
1o
0c"
1_"
1n"
0Y"
0o"
0W"
0p"
0q"
1K#
0G#
0X
1\
1k"
0i"
0h"
0U"
0["
0Z"
1b"
0^"
0e
#550000
0!
0n
0o
#555000
1!
1n
1o
1c"
0_"
0k"
1i"
1h"
1U"
0b"
1^"
1["
1Z"
1Q"
1e
#560000
0!
0n
0o
#565000
1!
1n
1o
0c"
1_"
1W"
1q"
1L#
0H#
0Y
1]
1k"
0i"
0h"
0U"
0Q"
0["
0Z"
1b"
0^"
0e
#570000
0!
0n
0o
#575000
1!
1n
1o
1c"
0_"
0k"
1i"
1h"
1U"
0b"
1^"
1["
1Z"
1V"
1e
#580000
0!
0n
0o
#585000
1!
1n
1o
0c"
1_"
0W"
1p"
0q"
1M#
0I#
0Z
1^
1k"
0i"
0h"
0U"
0V"
0["
0Z"
1b"
0^"
0e
#590000
0!
0n
0o
#595000
1!
1n
1o
1c"
0_"
0k"
1i"
1h"
1U"
0b"
1^"
1["
1Z"
1V"
1Q"
1e
#600000
0!
0n
0o
#605000
1!
1n
1o
0c"
1_"
1W"
1q"
1N#
0J#
0[
1_
1k"
0i"
0h"
0U"
0V"
0Q"
0["
0Z"
1b"
0^"
0e
#610000
0!
0n
0o
#615000
1!
1n
1o
1c"
0_"
0k"
1i"
1h"
1U"
0b"
1^"
1["
1Z"
1X"
1e
#620000
0!
0n
0o
#625000
1!
1n
1o
0c"
1_"
1Y"
1o"
0W"
0p"
0q"
1O#
0K#
0\
1`
1k"
0i"
0h"
0U"
0["
0Z"
0X"
1b"
0^"
0e
#630000
0!
0n
0o
#635000
1!
1n
1o
1c"
0_"
0k"
1i"
1h"
1U"
0b"
1^"
1["
1Z"
1X"
1Q"
1e
#640000
0!
0n
0o
#645000
1!
1n
1o
0c"
1_"
1W"
1q"
1P#
0L#
0]
1a
1k"
0i"
0h"
0U"
0Q"
0["
0Z"
0X"
1b"
0^"
0e
#650000
0!
0n
0o
#655000
1!
1n
1o
1c"
0_"
0k"
1i"
1h"
1U"
0b"
1^"
1["
1Z"
1X"
1V"
1e
#660000
0!
0n
0o
#665000
1!
1n
1o
0c"
1_"
0W"
1p"
0q"
1Q#
0M#
0^
1b
1k"
0i"
0h"
0U"
0V"
0["
0Z"
0X"
1b"
0^"
0e
#670000
0!
0n
0o
#675000
1!
1n
1o
1c"
0_"
0k"
1i"
1h"
1U"
0b"
1^"
1["
1Z"
1X"
1V"
1Q"
1e
#680000
0!
0n
0o
#685000
1!
1n
1o
0c"
1_"
1W"
1q"
1R#
0N#
0_
1c
1\"
1k"
0i"
0h"
0U"
0V"
0Q"
0["
0Z"
0X"
1b"
0^"
0e
#690000
0!
0n
0o
#695000
1!
1n
1o
1c"
0_"
0k"
1i"
1h"
1U"
0b"
1^"
1]"
1e
#700000
0!
0n
0o
#705000
1!
1n
1o
0c"
1_"
1l"
0m"
0n"
0Y"
0o"
0W"
0p"
0q"
1S#
0O#
0`
1d
0\"
1k"
0i"
0h"
0U"
0]"
0e
#710000
0!
0n
0o
#715000
1!
1n
1o
#720000
0!
0n
0o
#725000
1!
1n
1o
#730000
0!
0n
0o
#735000
1!
1n
1o
#740000
0!
0n
0o
#745000
1!
1n
1o
#750000
0!
0n
0o
#755000
1!
1n
1o
#760000
0!
0n
0o
#765000
1!
1n
1o
#770000
0!
0n
0o
#775000
1!
1n
1o
#780000
0!
0n
0o
#785000
1!
1n
1o
#790000
0!
0n
0o
#795000
1!
1n
1o
#800000
0!
0n
0o
